\relax 
\providecommand\hyper@newdestlabel[2]{}
\citation{sim-check-model-validity}
\@writefile{toc}{\contentsline {chapter}{\numberline {4}Discussion}{25}{chapter.4}\protected@file@percent }
\@writefile{lof}{\addvspace {10\p@ }}
\@writefile{lot}{\addvspace {10\p@ }}
\newlabel{chapter4}{{4}{25}{Discussion}{chapter.4}{}}
\@writefile{toc}{\contentsline {section}{\numberline {4.1}Demonstrating Model Successs}{25}{section.4.1}\protected@file@percent }
\@writefile{toc}{\contentsline {subsection}{\numberline {4.1.1}Accuracy}{25}{subsection.4.1.1}\protected@file@percent }
\@writefile{toc}{\contentsline {subsection}{\numberline {4.1.2}Validity}{25}{subsection.4.1.2}\protected@file@percent }
\@writefile{toc}{\contentsline {subsection}{\numberline {4.1.3}Adaptability}{25}{subsection.4.1.3}\protected@file@percent }
\citation{schneiderman}
\@writefile{toc}{\contentsline {subsection}{\numberline {4.1.4}Usability}{26}{subsection.4.1.4}\protected@file@percent }
\@writefile{toc}{\contentsline {section}{\numberline {4.2}Conclusions}{26}{section.4.2}\protected@file@percent }
\citation{covid-transmission-model-too-many-numbers}
\citation{scrolling-ui}
\@writefile{toc}{\contentsline {section}{\numberline {4.3}Ideas for future work}{27}{section.4.3}\protected@file@percent }
\@writefile{toc}{\contentsline {subsection}{\numberline {4.3.1}Environment and Scenario Builder}{27}{subsection.4.3.1}\protected@file@percent }
\newlabel{fig:proof-of-concept}{{\caption@xref {fig:proof-of-concept}{ on input line 60}}{27}{Environment and Scenario Builder}{figure.caption.20}{}}
\@writefile{lof}{\contentsline {figure}{\numberline {4.1}{\ignorespaces Mock up conceptual art of what the simulation would look like with a custom environment builder. Agents are depicted traversing aisles of a supermarket, following a One-Way-System, picking up items off shelves\relax }}{27}{figure.caption.20}\protected@file@percent }
\citation{successful-simulations-1995}
\citation{simulation-shows-wearing-mask-reduces-spread}
\@writefile{toc}{\contentsline {subsection}{\numberline {4.3.2}User Interface}{28}{subsection.4.3.2}\protected@file@percent }
\@writefile{toc}{\contentsline {subsection}{\numberline {4.3.3}Data visualisation: Graph Output}{28}{subsection.4.3.3}\protected@file@percent }
\@writefile{toc}{\contentsline {subsection}{\numberline {4.3.4}Validation}{28}{subsection.4.3.4}\protected@file@percent }
\@writefile{toc}{\contentsline {subsection}{\numberline {4.3.5}Parameters}{28}{subsection.4.3.5}\protected@file@percent }
\@writefile{toc}{\contentsline {subsection}{\numberline {4.3.6}Environment}{29}{subsection.4.3.6}\protected@file@percent }
\@writefile{toc}{\contentsline {subsection}{\numberline {4.3.7}Movement types}{29}{subsection.4.3.7}\protected@file@percent }
\@setckpt{./chapters/chapter4}{
\setcounter{page}{30}
\setcounter{equation}{0}
\setcounter{enumi}{12}
\setcounter{enumii}{0}
\setcounter{enumiii}{0}
\setcounter{enumiv}{0}
\setcounter{footnote}{0}
\setcounter{mpfootnote}{0}
\setcounter{part}{0}
\setcounter{chapter}{4}
\setcounter{section}{3}
\setcounter{subsection}{7}
\setcounter{subsubsection}{0}
\setcounter{paragraph}{0}
\setcounter{subparagraph}{0}
\setcounter{figure}{1}
\setcounter{table}{0}
\setcounter{@pps}{0}
\setcounter{@ppsavesec}{0}
\setcounter{@ppsaveapp}{0}
\setcounter{float@type}{8}
\setcounter{algorithm}{0}
\setcounter{ALG@line}{0}
\setcounter{ALG@rem}{0}
\setcounter{ALG@nested}{0}
\setcounter{ALG@Lnr}{2}
\setcounter{ALG@blocknr}{10}
\setcounter{ALG@storecount}{0}
\setcounter{ALG@tmpcounter}{0}
\setcounter{caption@flags}{0}
\setcounter{continuedfloat}{0}
\setcounter{subfigure}{0}
\setcounter{subtable}{0}
\setcounter{@index}{0}
\setcounter{@plane}{0}
\setcounter{@row}{0}
\setcounter{@col}{0}
\setcounter{use@args}{0}
\setcounter{@record}{0}
\setcounter{arg@index}{0}
\setcounter{break@count}{0}
\setcounter{index@count}{0}
\setcounter{loop@count}{0}
\setcounter{VerbboxLineNo}{0}
\setcounter{Item}{26}
\setcounter{Hfootnote}{0}
\setcounter{bookmark@seq@number}{58}
\setcounter{section@level}{0}
}
