\relax 
\providecommand\hyper@newdestlabel[2]{}
\citation{steering-behaviours}
\@writefile{toc}{\contentsline {chapter}{\numberline {2}Methods}{8}{chapter.2}\protected@file@percent }
\@writefile{lof}{\addvspace {10\p@ }}
\@writefile{lot}{\addvspace {10\p@ }}
\newlabel{chapter2}{{2}{8}{Methods}{chapter.2}{}}
\@writefile{toc}{\contentsline {section}{\numberline {2.1}Design}{8}{section.2.1}\protected@file@percent }
\@writefile{toc}{\contentsline {section}{\numberline {2.2}Implementing an Agent Based Model}{8}{section.2.2}\protected@file@percent }
\@writefile{toc}{\contentsline {subsection}{\numberline {2.2.1}Implementation technologies}{8}{subsection.2.2.1}\protected@file@percent }
\@writefile{toc}{\contentsline {subsection}{\numberline {2.2.2}Autonomous Agents}{8}{subsection.2.2.2}\protected@file@percent }
\citation{steering-behaviours}
\citation{steering-behaviours}
\citation{steering-behaviours}
\@writefile{lof}{\contentsline {figure}{\numberline {2.1}{\ignorespaces UML Diagram to show the relationship between instances of the agent and item class\relax }}{9}{figure.caption.4}\protected@file@percent }
\newlabel{fig:uml}{{2.1}{9}{UML Diagram to show the relationship between instances of the agent and item class\relax }{figure.caption.4}{}}
\citation{steering-behaviours}
\citation{steering-behaviours}
\citation{steering-behaviours}
\@writefile{lof}{\contentsline {figure}{\numberline {2.2}{\ignorespaces Stages of Action for a functioning vehicle object, Reynolds: Steering Behviours of Autonomous Characters \cite  {steering-behaviours}\relax }}{10}{figure.caption.5}\protected@file@percent }
\newlabel{fig:aa-states}{{2.2}{10}{Stages of Action for a functioning vehicle object, Reynolds: Steering Behviours of Autonomous Characters \cite {steering-behaviours}\relax }{figure.caption.5}{}}
\@writefile{toc}{\contentsline {subsection}{\numberline {2.2.3}Steering Behaviours}{10}{subsection.2.2.3}\protected@file@percent }
\@writefile{lof}{\contentsline {figure}{\numberline {2.3}{\ignorespaces Reynolds: Steering Behviours of Autonomous Characters \cite  {steering-behaviours}\relax }}{10}{figure.caption.6}\protected@file@percent }
\@writefile{toc}{\contentsline {section}{\numberline {2.3}Perlin noise and Visulation of disease transmission}{11}{section.2.3}\protected@file@percent }
\@writefile{toc}{\contentsline {subsection}{\numberline {2.3.1}Graphically representing disease transmission}{11}{subsection.2.3.1}\protected@file@percent }
\@writefile{lof}{\contentsline {figure}{\numberline {2.4}{\ignorespaces On the left: Representation of 2D Perlin noise values, where darker areas are closer to 1 and lighter areas are closer to 0. And a red line traversing the value space from left to right. On the Right: A jagged line whose distance from the constant black baseline is representing the darkness/brightess of the area that the red arrow cuts thorugh at that same point in the noise space. Perlin noise values from the left are mapped from 0 to 1 → -1 to 1 to represent distance above and below the 0 point baseline on the right\relax }}{12}{figure.caption.7}\protected@file@percent }
\newlabel{fig:perlin-noise}{{2.4}{12}{On the left: Representation of 2D Perlin noise values, where darker areas are closer to 1 and lighter areas are closer to 0. And a red line traversing the value space from left to right. On the Right: A jagged line whose distance from the constant black baseline is representing the darkness/brightess of the area that the red arrow cuts thorugh at that same point in the noise space. Perlin noise values from the left are mapped from 0 to 1 → -1 to 1 to represent distance above and below the 0 point baseline on the right\relax }{figure.caption.7}{}}
\@writefile{toc}{\contentsline {subsection}{\numberline {2.3.2}Random firing of disease transmission}{12}{subsection.2.3.2}\protected@file@percent }
\newlabel{fig:square}{{2.5a}{13}{Drawing sides of a square with height variation\relax }{figure.caption.8}{}}
\newlabel{sub@fig:square}{{a}{13}{Drawing sides of a square with height variation\relax }{figure.caption.8}{}}
\@writefile{lof}{\contentsline {figure}{\numberline {2.5}{\ignorespaces Pseudocode which describes drawing the chaotic disease transmission shape using perlin noise, with the first for loop drawing the top side of the jagged square shown in (a)\relax }}{13}{figure.caption.8}\protected@file@percent }
\newlabel{fig:shape-algorithm}{{2.5}{13}{Pseudocode which describes drawing the chaotic disease transmission shape using perlin noise, with the first for loop drawing the top side of the jagged square shown in (a)\relax }{figure.caption.8}{}}
\@writefile{toc}{\contentsline {section}{\numberline {2.4}Graphical User Interface}{13}{section.2.4}\protected@file@percent }
\@writefile{toc}{\contentsline {subsection}{\numberline {2.4.1}Parameter Control}{13}{subsection.2.4.1}\protected@file@percent }
\@writefile{toc}{\contentsline {subsection}{\numberline {2.4.2}Design of the User Interface}{13}{subsection.2.4.2}\protected@file@percent }
\newlabel{User Interface Methods}{{2.4.2}{13}{Design of the User Interface}{table.caption.10}{}}
\@writefile{lof}{\contentsline {figure}{\numberline {2.6}{\ignorespaces The Parameter Control Section of the Simulator\relax }}{14}{figure.caption.9}\protected@file@percent }
\newlabel{fig:parameters}{{2.6}{14}{The Parameter Control Section of the Simulator\relax }{figure.caption.9}{}}
\@writefile{lot}{\contentsline {table}{\numberline {2.1}{\ignorespaces Table of Interactable elements in the Parameter Control Panel\relax }}{14}{table.caption.10}\protected@file@percent }
\newlabel{tab:parameters}{{2.1}{14}{Table of Interactable elements in the Parameter Control Panel\relax }{table.caption.10}{}}
\newlabel{survey-format}{{2.4.2}{15}{}{Item.14}{}}
\newlabel{scale}{{2.4.2}{16}{}{Item.14}{}}
\@writefile{toc}{\contentsline {subsection}{\numberline {2.4.3}Automatic Data collection for Experiments over Iterations}{16}{subsection.2.4.3}\protected@file@percent }
\@writefile{toc}{\contentsline {subsection}{\numberline {2.4.4}Recording Infection Times and Data Sctructures}{17}{subsection.2.4.4}\protected@file@percent }
\@writefile{toc}{\contentsline {section}{\numberline {2.5}Data Visualisation}{17}{section.2.5}\protected@file@percent }
\@writefile{toc}{\contentsline {section}{\numberline {2.6}Code Structure and Organisation}{17}{section.2.6}\protected@file@percent }
\@writefile{lof}{\contentsline {figure}{\numberline {2.7}{\ignorespaces 873 total lines of code\relax }}{17}{figure.caption.11}\protected@file@percent }
\@writefile{toc}{\contentsline {subsection}{\numberline {2.6.1}Managing code using version control system}{17}{subsection.2.6.1}\protected@file@percent }
\citation{agile}
\@writefile{toc}{\contentsline {subsection}{\numberline {2.6.2}Details of Project Management Methodology}{18}{subsection.2.6.2}\protected@file@percent }
\@setckpt{./chapters/chapter2}{
\setcounter{page}{19}
\setcounter{equation}{0}
\setcounter{enumi}{3}
\setcounter{enumii}{0}
\setcounter{enumiii}{0}
\setcounter{enumiv}{0}
\setcounter{footnote}{0}
\setcounter{mpfootnote}{0}
\setcounter{part}{0}
\setcounter{chapter}{2}
\setcounter{section}{6}
\setcounter{subsection}{2}
\setcounter{subsubsection}{0}
\setcounter{paragraph}{0}
\setcounter{subparagraph}{0}
\setcounter{figure}{7}
\setcounter{table}{1}
\setcounter{@pps}{0}
\setcounter{@ppsavesec}{0}
\setcounter{@ppsaveapp}{0}
\setcounter{float@type}{8}
\setcounter{algorithm}{0}
\setcounter{ALG@line}{0}
\setcounter{ALG@rem}{0}
\setcounter{ALG@nested}{0}
\setcounter{ALG@Lnr}{2}
\setcounter{ALG@blocknr}{10}
\setcounter{ALG@storecount}{0}
\setcounter{ALG@tmpcounter}{0}
\setcounter{caption@flags}{0}
\setcounter{continuedfloat}{0}
\setcounter{subfigure}{0}
\setcounter{subtable}{0}
\setcounter{@index}{0}
\setcounter{@plane}{0}
\setcounter{@row}{0}
\setcounter{@col}{0}
\setcounter{use@args}{0}
\setcounter{@record}{0}
\setcounter{arg@index}{0}
\setcounter{break@count}{0}
\setcounter{index@count}{0}
\setcounter{loop@count}{0}
\setcounter{VerbboxLineNo}{0}
\setcounter{Item}{14}
\setcounter{Hfootnote}{0}
\setcounter{bookmark@seq@number}{33}
\setcounter{section@level}{0}
}
