\relax 
\providecommand\hyper@newdestlabel[2]{}
\citation{covid-impact}
\citation{npi-implications}
\citation{covid-economy-shutdown}
\citation{npi-mental-impact}
\citation{mitigating-economic-impact-npi}
\citation{npi-considerations}
\citation{intention-self-isolate}
\citation{indoor-covid-spread}
\@writefile{toc}{\contentsline {chapter}{\numberline {1}Introduction and Background Research}{1}{chapter.1}\protected@file@percent }
\@writefile{lof}{\addvspace {10\p@ }}
\@writefile{lot}{\addvspace {10\p@ }}
\newlabel{chapter1}{{1}{1}{Introduction and Background Research}{chapter.1}{}}
\@writefile{toc}{\contentsline {section}{\numberline {1.1}Introduction}{1}{section.1.1}\protected@file@percent }
\citation{define-r}
\citation{isolate-reduce-r-50}
\citation{define-simulation}
\citation{successful-simulations-1995}
\@writefile{toc}{\contentsline {section}{\numberline {1.2}Literature review}{2}{section.1.2}\protected@file@percent }
\@writefile{toc}{\contentsline {subsection}{\numberline {1.2.1}Using Simulations}{2}{subsection.1.2.1}\protected@file@percent }
\newlabel{MCS}{{1.2.1}{2}{Using Simulations}{subsection.1.2.1}{}}
\citation{challenges-modelling-covid}
\citation{sim-check-model-validity}
\citation{abm-define}
\citation{autonomous-agent-define}
\citation{supermarket-shoppers-behaviour}
\citation{cough-shape}
\citation{define-chaos}
\citation{covid-transmission-cough}
\citation{perlin}
\citation{cough-threshold}
\@writefile{toc}{\contentsline {subsection}{\numberline {1.2.2}Agent Based Model and Autonomous Agents}{3}{subsection.1.2.2}\protected@file@percent }
\@writefile{toc}{\contentsline {subsection}{\numberline {1.2.3}Visually approximating disease transmission}{3}{subsection.1.2.3}\protected@file@percent }
\citation{covid-transmission-model-too-many-numbers}
\citation{supermarket-abm}
\citation{supermarket-abm}
\citation{supermarket-abm}
\citation{contact-based-abm}
\citation{airborne-transmission-covid}
\@writefile{toc}{\contentsline {section}{\numberline {1.3}Critical Analysis of Existing solutions}{4}{section.1.3}\protected@file@percent }
\@writefile{toc}{\contentsline {subsection}{\numberline {1.3.1}Modelling COVID-19 transmission in a supermarket using an ABM}{4}{subsection.1.3.1}\protected@file@percent }
\citation{lack-data-contact-infection}
\citation{simulation-shows-wearing-mask-reduces-spread}
\citation{covid-transmission-model-too-many-numbers}
\@writefile{lof}{\contentsline {figure}{\numberline {1.1}{\ignorespaces Visual Output from - How risky is it to visit a supermarket during the pandemic? (Tsukanov et al.) \cite  {supermarket-abm}\relax }}{5}{figure.caption.3}\protected@file@percent }
\providecommand*\caption@xref[2]{\@setref\relax\@undefined{#1}}
\newlabel{fig:supermarket}{{1.1}{5}{Visual Output from - How risky is it to visit a supermarket during the pandemic? (Tsukanov et al.) \cite {supermarket-abm}\relax }{figure.caption.3}{}}
\@writefile{toc}{\contentsline {subsection}{\numberline {1.3.2}Modelling Infection Spread}{5}{subsection.1.3.2}\protected@file@percent }
\newlabel{ch1-model-disease-transmission}{{1.3.2}{5}{Modelling Infection Spread}{subsection.1.3.2}{}}
\citation{schneiderman}
\@writefile{toc}{\contentsline {subsection}{\numberline {1.3.3}User Interface}{6}{subsection.1.3.3}\protected@file@percent }
\newlabel{golden-rules}{{1.3.3}{6}{User Interface}{Item.8}{}}
\@writefile{toc}{\contentsline {section}{\numberline {1.4}Objectives}{6}{section.1.4}\protected@file@percent }
\@writefile{toc}{\contentsline {subsection}{\numberline {1.4.1}Functional Requirements}{6}{subsection.1.4.1}\protected@file@percent }
\@writefile{toc}{\contentsline {subsection}{\numberline {1.4.2}Minimum Objectives}{7}{subsection.1.4.2}\protected@file@percent }
\@writefile{toc}{\contentsline {subsection}{\numberline {1.4.3}Optional Objectives}{7}{subsection.1.4.3}\protected@file@percent }
\@writefile{toc}{\contentsline {subsection}{\numberline {1.4.4}Known Limitations}{7}{subsection.1.4.4}\protected@file@percent }
\@setckpt{./chapters/chapter1}{
\setcounter{page}{8}
\setcounter{equation}{0}
\setcounter{enumi}{3}
\setcounter{enumii}{0}
\setcounter{enumiii}{0}
\setcounter{enumiv}{0}
\setcounter{footnote}{0}
\setcounter{mpfootnote}{0}
\setcounter{part}{0}
\setcounter{chapter}{1}
\setcounter{section}{4}
\setcounter{subsection}{4}
\setcounter{subsubsection}{0}
\setcounter{paragraph}{0}
\setcounter{subparagraph}{0}
\setcounter{figure}{1}
\setcounter{table}{0}
\setcounter{@pps}{0}
\setcounter{@ppsavesec}{0}
\setcounter{@ppsaveapp}{0}
\setcounter{float@type}{8}
\setcounter{algorithm}{0}
\setcounter{ALG@line}{0}
\setcounter{ALG@rem}{0}
\setcounter{ALG@nested}{0}
\setcounter{ALG@Lnr}{2}
\setcounter{ALG@blocknr}{10}
\setcounter{ALG@storecount}{0}
\setcounter{ALG@tmpcounter}{0}
\setcounter{caption@flags}{0}
\setcounter{continuedfloat}{0}
\setcounter{subfigure}{0}
\setcounter{subtable}{0}
\setcounter{@index}{0}
\setcounter{@plane}{0}
\setcounter{@row}{0}
\setcounter{@col}{0}
\setcounter{use@args}{0}
\setcounter{@record}{0}
\setcounter{arg@index}{0}
\setcounter{break@count}{0}
\setcounter{index@count}{0}
\setcounter{loop@count}{0}
\setcounter{VerbboxLineNo}{0}
\setcounter{Item}{11}
\setcounter{Hfootnote}{0}
\setcounter{bookmark@seq@number}{15}
\setcounter{section@level}{0}
}
