\relax 
\providecommand\hyper@newdestlabel[2]{}
\@writefile{toc}{\contentsline {chapter}{\numberline {3}Results}{19}{chapter.3}\protected@file@percent }
\@writefile{lof}{\addvspace {10\p@ }}
\@writefile{lot}{\addvspace {10\p@ }}
\newlabel{chapter3}{{3}{19}{Results}{chapter.3}{}}
\@writefile{toc}{\contentsline {section}{\numberline {3.1}Model/Simulation Outputs}{19}{section.3.1}\protected@file@percent }
\@writefile{lof}{\contentsline {figure}{\numberline {3.1}{\ignorespaces Screenshot of the simulation visual output animation, from Test Set B, Iteration 8\relax }}{19}{figure.caption.12}\protected@file@percent }
\newlabel{fig:Model Screenshots}{{3.1}{19}{Screenshot of the simulation visual output animation, from Test Set B, Iteration 8\relax }{figure.caption.12}{}}
\@writefile{toc}{\contentsline {subsection}{\numberline {3.1.1}Simulation Successes}{19}{subsection.3.1.1}\protected@file@percent }
\@writefile{toc}{\contentsline {subsection}{\numberline {3.1.2}Model Faults}{20}{subsection.3.1.2}\protected@file@percent }
\@writefile{lof}{\contentsline {figure}{\numberline {3.2}{\ignorespaces Model output Data Visualisation graphs\relax }}{20}{figure.caption.13}\protected@file@percent }
\newlabel{fig:graphs}{{3.2}{20}{Model output Data Visualisation graphs\relax }{figure.caption.13}{}}
\@writefile{toc}{\contentsline {subsection}{\numberline {3.1.3}Simulating Coughing fits}{21}{subsection.3.1.3}\protected@file@percent }
\@writefile{toc}{\contentsline {subsection}{\numberline {3.1.4}Visualising Disease Transmission}{21}{subsection.3.1.4}\protected@file@percent }
\@writefile{lof}{\contentsline {figure}{\numberline {3.3}{\ignorespaces Frames showing the process of disease transmission in the simulation\relax }}{21}{figure.caption.14}\protected@file@percent }
\newlabel{fig:disease}{{3.3}{21}{Frames showing the process of disease transmission in the simulation\relax }{figure.caption.14}{}}
\@writefile{toc}{\contentsline {section}{\numberline {3.2}User Experience}{21}{section.3.2}\protected@file@percent }
\@writefile{lot}{\contentsline {table}{\numberline {3.1}{\ignorespaces Table to show the Feature Requirements which determine Project Success\relax }}{22}{table.caption.15}\protected@file@percent }
\newlabel{tab:feature-requirements}{{3.1}{22}{Table to show the Feature Requirements which determine Project Success\relax }{table.caption.15}{}}
\@writefile{lot}{\contentsline {table}{\numberline {3.2}{\ignorespaces Table to show the results of the user test for the Interface section\relax }}{22}{table.caption.16}\protected@file@percent }
\newlabel{tab:user-test-interface}{{3.2}{22}{Table to show the results of the user test for the Interface section\relax }{table.caption.16}{}}
\@writefile{lot}{\contentsline {table}{\numberline {3.3}{\ignorespaces Table to show the results of the user test for the Visuals section\relax }}{22}{table.caption.17}\protected@file@percent }
\newlabel{tab:user-test-observe}{{3.3}{22}{Table to show the results of the user test for the Visuals section\relax }{table.caption.17}{}}
\newlabel{ui-critique}{{3.2}{22}{}{table.caption.17}{}}
\@writefile{toc}{\contentsline {subsection}{\numberline {3.2.1}Scalability Testing}{22}{subsection.3.2.1}\protected@file@percent }
\@writefile{lof}{\contentsline {figure}{\numberline {3.4}{\ignorespaces Scalability test: 500 Agents, Large performance drop when the simulation attempts to simulate the disease transmission of 500 infected agents simulataneously\relax }}{23}{figure.caption.18}\protected@file@percent }
\newlabel{fig:extreme-visual}{{3.4}{23}{Scalability test: 500 Agents, Large performance drop when the simulation attempts to simulate the disease transmission of 500 infected agents simulataneously\relax }{figure.caption.18}{}}
\@writefile{toc}{\contentsline {section}{\numberline {3.3}Outcome of the Study}{23}{section.3.3}\protected@file@percent }
\@writefile{toc}{\contentsline {subsection}{\numberline {3.3.1}Visual Output}{23}{subsection.3.3.1}\protected@file@percent }
\@writefile{lof}{\contentsline {figure}{\numberline {3.5}{\ignorespaces Annotated frame from the Visual Output of the simulation: The exact moment that all agents become infected, the end of the iteration 6\relax }}{24}{figure.caption.19}\protected@file@percent }
\newlabel{fig:annotated-visual}{{3.5}{24}{Annotated frame from the Visual Output of the simulation: The exact moment that all agents become infected, the end of the iteration 6\relax }{figure.caption.19}{}}
\@setckpt{./chapters/chapter3}{
\setcounter{page}{25}
\setcounter{equation}{0}
\setcounter{enumi}{12}
\setcounter{enumii}{0}
\setcounter{enumiii}{0}
\setcounter{enumiv}{0}
\setcounter{footnote}{0}
\setcounter{mpfootnote}{0}
\setcounter{part}{0}
\setcounter{chapter}{3}
\setcounter{section}{3}
\setcounter{subsection}{1}
\setcounter{subsubsection}{0}
\setcounter{paragraph}{0}
\setcounter{subparagraph}{0}
\setcounter{figure}{5}
\setcounter{table}{3}
\setcounter{@pps}{0}
\setcounter{@ppsavesec}{0}
\setcounter{@ppsaveapp}{0}
\setcounter{float@type}{8}
\setcounter{algorithm}{0}
\setcounter{ALG@line}{0}
\setcounter{ALG@rem}{0}
\setcounter{ALG@nested}{0}
\setcounter{ALG@Lnr}{2}
\setcounter{ALG@blocknr}{10}
\setcounter{ALG@storecount}{0}
\setcounter{ALG@tmpcounter}{0}
\setcounter{caption@flags}{0}
\setcounter{continuedfloat}{0}
\setcounter{subfigure}{0}
\setcounter{subtable}{0}
\setcounter{@index}{0}
\setcounter{@plane}{0}
\setcounter{@row}{0}
\setcounter{@col}{0}
\setcounter{use@args}{0}
\setcounter{@record}{0}
\setcounter{arg@index}{0}
\setcounter{break@count}{0}
\setcounter{index@count}{0}
\setcounter{loop@count}{0}
\setcounter{VerbboxLineNo}{0}
\setcounter{Item}{26}
\setcounter{Hfootnote}{0}
\setcounter{bookmark@seq@number}{43}
\setcounter{section@level}{0}
}
